{
    "version": "1.0",
    "depends": "alacritty",
    "url": [
        "https://gitlab.com/snippets/1901468/raw#/alacritty.yml",
        "https://gitlab.com/snippets/1901480/raw#/alacritty-install-context.reg",
        "https://gitlab.com/snippets/1901481/raw#/alacritty-uninstall-context.reg"
    ],
    "hash":[
        "d8a39e45d0cf1846acc5f002fe3ce1bf9a0a966a6d2b1012f8fe7cb0b65e6a5d",
        "fa3838d46a8b8e790998963acc81ccf8eed77dd4a88e0f913c1593d7d009d3fb",
        "5752f64c5a6f22062e30ce4da0a73f4bc28c93192a8445d3dc5e3c01b0198215"
    ],
    "post_install": [
        "$loc = \"$env:APPDATA\\alacritty\\alacritty.yml\"",
        "New-Item -ItemType File -Path $loc -Force",
        "Copy-Item \"$dir\\alacritty.yml\" $loc -Force",
        "$exepath = \"$scoopdir\\apps\\alacritty\\current\\alacritty.exe\".Replace('\\', '\\\\')",
        "$content = Get-Content \"$dir\\alacritty-install-context.reg\"",
        "$content = $content.Replace('$exe_path', $exepath)",
        "$content | Set-Content -Path \"$dir\\alacritty-install-context.reg\""
    ],
    "notes": "Add Alacritty as a context menu option by running: \"$dir\\alacritty-install-context.reg\""
}